EDA with R
…
Multiple Line

各縣市各月份交易量比較

table = data %>% 
  group_by(city,trac_month) %>% 
  summarise(Count=n()) 
table

Source: local data frame [48 x 3]
Groups: city [?]

# A tibble: 48 x 3
     city trac_month Count
   <fctr>     <fctr> <int>
 1 高雄市          1  2511
 2 高雄市          2  1897
 3 高雄市          3  3355
 4 高雄市          4  3524
 5 高雄市          5  3378
 6 高雄市          6  3097
 7 高雄市          7  3063
 8 高雄市          8  2573
 9 高雄市          9  2354
10 高雄市         10  2590
# ... with 38 more rows
…
